…
Extract the GDP data for all countries

``` r
GDP_Raw <- wb_data(my_indicators, 
                    start_date = 2020,
                    end_date = 2020)
```

Having a look at the data

``` r
GDP_Raw
```

    ## # A tibble: 217 x 9
    ##    iso2c iso3c country     date       GDP unit  obs_status footnote last_updated
    ##    <chr> <chr> <chr>      <dbl>     <dbl> <chr> <chr>      <chr>    <date>      
    ##  1 AW    ABW   Aruba       2020  NA       <NA>  <NA>       <NA>     2021-12-16  
    ##  2 AF    AFG   Afghanist~  2020   2.01e10 <NA>  <NA>       <NA>     2021-12-16  
    ##  3 AO    AGO   Angola      2020   5.84e10 <NA>  <NA>       <NA>     2021-12-16  
    ##  4 AL    ALB   Albania     2020   1.49e10 <NA>  <NA>       <NA>     2021-12-16  
    ##  5 AD    AND   Andorra     2020  NA       <NA>  <NA>       <NA>     2021-12-16  
    ##  6 AE    ARE   United Ar~  2020   3.59e11 <NA>  <NA>       <NA>     2021-12-16  
    ##  7 AR    ARG   Argentina   2020   3.89e11 <NA>  <NA>       <NA>     2021-12-16  
    ##  8 AM    ARM   Armenia     2020   1.26e10 <NA>  <NA>       <NA>     2021-12-16  
    ##  9 AS    ASM   American ~  2020   7.09e 8 <NA>  <NA>       <NA>     2021-12-16  
    ## 10 AG    ATG   Antigua a~  2020   1.37e 9 <NA>  <NA>       <NA>     2021-12-16  
    ## # ... with 207 more rows

### Making it neater

It seems as though there are some columns we won’t need, so let us get
rid of those: Getting rid of useless columns from the data set:

``` r
GDP_Data <- subset(GDP_Raw, select = c(1, 2, 3, 4, 5, 9))
# Have a look
GDP_Data
```

    ## # A tibble: 217 x 6
    ##    iso2c iso3c country               date           GDP last_updated
    ##    <chr> <chr> <chr>                <dbl>         <dbl> <date>      
    ##  1 AW    ABW   Aruba                 2020           NA  2021-12-16  
    ##  2 AF    AFG   Afghanistan           2020  20116137326. 2021-12-16  
    ##  3 AO    AGO   Angola                2020  58375976293. 2021-12-16  
    ##  4 AL    ALB   Albania               2020  14887629268. 2021-12-16  
    ##  5 AD    AND   Andorra               2020           NA  2021-12-16  
    ##  6 AE    ARE   United Arab Emirates  2020 358868765175. 2021-12-16  
    ##  7 AR    ARG   Argentina             2020 389288056265. 2021-12-16  
    ##  8 AM    ARM   Armenia               2020  12641209802. 2021-12-16  
    ##  9 AS    ASM   American Samoa        2020    709000000  2021-12-16  
    ## 10 AG    ATG   Antigua and Barbuda   2020   1370281481. 2021-12-16  
    ## # ... with 207 more rows
…
Giving China the CHN

``` r
Tokyo_Data$code <- sub("TWN", "CHN", Tokyo_Data$code)
Tokyo_Data$code[42] <- "TWN"
```

Joining the data using inner join :

``` r
GDP_And_Medals_Raw <- inner_join(Tokyo_Data, GDP_Data_Final, by = "code")
GDP_And_Medals_Raw
```

    ## # A tibble: 87 x 10
    ##    Country    Gold Silver Bronze code  iso2c country   date     GDP last_updated
    ##    <chr>     <dbl>  <dbl>  <dbl> <chr> <chr> <chr>    <dbl>   <dbl> <date>      
    ##  1 United S~    39     41     33 USA   US    United ~  2020 2.09e13 2021-12-16  
    ##  2 Republic~    38     32     18 CHN   CN    China     2020 1.47e13 2021-12-16  
    ##  3 Japan        27     14     17 JPN   JP    Japan     2020 5.06e12 2021-12-16  
    ##  4 Great Br~    22     21     22 GBR   GB    United ~  2020 2.76e12 2021-12-16  
    ##  5 Russia       20     28     23 RUS   RU    Russian~  2020 1.48e12 2021-12-16  
    ##  6 Australia    17      7     22 AUS   AU    Austral~  2020 1.33e12 2021-12-16  
    ##  7 Germany      10     11     16 DEU   DE    Germany   2020 3.85e12 2021-12-16  
    ##  8 Italy        10     10     20 ITA   IT    Italy     2020 1.89e12 2021-12-16  
    ##  9 France       10     12     11 FRA   FR    France    2020 2.63e12 2021-12-16  
    ## 10 Netherla~    10     12     14 NLD   NL    Netherl~  2020 9.14e11 2021-12-16  
    ## # ... with 77 more rows

Looks good although we now have NA values too

Remove all of the NA values

``` r
GDP_And_Medals_Final <- na.omit(GDP_And_Medals_Raw)
GDP_And_Medals_Final
```

    ## # A tibble: 83 x 10
    ##    Country    Gold Silver Bronze code  iso2c country   date     GDP last_updated
    ##    <chr>     <dbl>  <dbl>  <dbl> <chr> <chr> <chr>    <dbl>   <dbl> <date>      
    ##  1 United S~    39     41     33 USA   US    United ~  2020 2.09e13 2021-12-16  
    ##  2 Republic~    38     32     18 CHN   CN    China     2020 1.47e13 2021-12-16  
    ##  3 Japan        27     14     17 JPN   JP    Japan     2020 5.06e12 2021-12-16  
    ##  4 Great Br~    22     21     22 GBR   GB    United ~  2020 2.76e12 2021-12-16  
    ##  5 Russia       20     28     23 RUS   RU    Russian~  2020 1.48e12 2021-12-16  
    ##  6 Australia    17      7     22 AUS   AU    Austral~  2020 1.33e12 2021-12-16  
    ##  7 Germany      10     11     16 DEU   DE    Germany   2020 3.85e12 2021-12-16  
    ##  8 Italy        10     10     20 ITA   IT    Italy     2020 1.89e12 2021-12-16  
    ##  9 France       10     12     11 FRA   FR    France    2020 2.63e12 2021-12-16  
    ## 10 Netherla~    10     12     14 NLD   NL    Netherl~  2020 9.14e11 2021-12-16  
    ## # ... with 73 more rows
…
